\relax 
\@writefile{toc}{\contentsline {section}{\numberline {1}New Assumptions}{2}}
\@writefile{toc}{\contentsline {section}{\numberline {2}Our Model}{3}}
\@writefile{toc}{\contentsline {subsection}{\numberline {2.1}Firm risk aversion}{3}}
\@writefile{toc}{\contentsline {subsection}{\numberline {2.2}The insurer}{5}}
\@writefile{toc}{\contentsline {subsection}{\numberline {2.3}Modelling limitations}{5}}
\@writefile{toc}{\contentsline {subsection}{\numberline {2.4}Firm Utility Functions}{6}}
\newlabel{firmifullutil}{{3}{7}}
\newlabel{firmutil1}{{7}{7}}
\newlabel{summarytable}{{2.4}{7}}
\@writefile{toc}{\contentsline {subsection}{\numberline {2.5}The Adversary's Utility}{8}}
\@writefile{toc}{\contentsline {subsection}{\numberline {2.6}Game Ordering}{9}}
\@writefile{toc}{\contentsline {section}{\numberline {3}The Equilibrium Strategy}{9}}
\@writefile{toc}{\contentsline {subsection}{\numberline {3.1}\(p_i\) : do we pay the ransomware criminal?}{9}}
\@writefile{toc}{\contentsline {subsection}{\numberline {3.2}How hard should we attack?}{10}}
\newlabel{alloutattack}{{1}{10}}
\newlabel{risRi}{{2}{11}}
\newlabel{rSolution}{{2}{11}}
\newlabel{thetaSolution}{{3}{11}}
\@writefile{toc}{\contentsline {subsection}{\numberline {3.3}Simplifying the firm's utility function}{12}}
\newlabel{firmifullutilsimpler}{{9}{12}}
\newlabel{firmutil}{{30}{12}}
\@writefile{toc}{\contentsline {subsection}{\numberline {3.4}Solving the attacker's strategy}{13}}
\newlabel{aSolution}{{4}{13}}
\@writefile{toc}{\contentsline {section}{\numberline {4}Insurance behaviour in Nash Equilibrium}{14}}
\newlabel{sec:ine}{{4}{14}}
\newlabel{eq:simplebi}{{33}{14}}
\newlabel{prop:Zsolution}{{5}{14}}
\newlabel{eq:Zsolution}{{35}{14}}
\@writefile{toc}{\contentsline {section}{\numberline {5}Player backup-strategies in a Nash Equilibrium}{15}}
\newlabel{sec:b_i}{{5}{15}}
\newlabel{ass1}{{1}{15}}
\newlabel{eq:diffF}{{39}{15}}
\@writefile{toc}{\contentsline {subsection}{\numberline {5.1}A plausible best-guess solution}{16}}
\newlabel{con:algcorrect}{{1}{16}}
\newlabel{mainalg}{{1}{16}}
\@writefile{toc}{\contentsline {subsection}{\numberline {5.2}Numerical Investigations in Nash Equilibria dynamics}{17}}
\newlabel{ass2}{{2}{17}}
\@writefile{toc}{\contentsline {section}{\numberline {6}Insurance behaviour in Stackleberg Equilibria, and other restrictions}{17}}
\newlabel{sec:ise}{{6}{17}}
\newlabel{table:res5}{{7.1}{19}}
\@writefile{lot}{\contentsline {table}{\numberline {1}{\ignorespaces Default game settings 1}}{19}}
\@writefile{toc}{\contentsline {section}{\numberline {7}Results}{19}}
\newlabel{sec:results}{{7}{19}}
\@writefile{toc}{\contentsline {subsection}{\numberline {7.1}Question: is it ever rational to buy ransomware insurance, and does this depend the game parameters (other than \(\pi \), of course)?}{19}}
\newlabel{qu:1}{{7.1}{19}}
\newlabel{table:res1}{{7.1}{20}}
\@writefile{lot}{\contentsline {table}{\numberline {2}{\ignorespaces Rational action-profiles for firm 1 (middle row) and firm 2 (bottom) as delta (\(\delta \)) varies (the other params are defined by Table 7.1\hbox {}). Notice that both groups of firms are entirely homogenous, so the different behaviour must be explained by how the adversary attacks firm 1, rather than 2, if they are indifferent between the two choices of victims: this explains why firm 1 always buys ransomware insurance as \(\delta \) varies.}}{20}}
\@writefile{toc}{\contentsline {subsection}{\numberline {7.2}Question: does public knowledge of player insurance behaviour improve or hinder social welfare? Or simply, does game order matter?}{20}}
\newlabel{table:res2}{{7.2}{21}}
\@writefile{lot}{\contentsline {table}{\numberline {3}{\ignorespaces Default game settings 2}}{21}}
\@writefile{toc}{\contentsline {section}{\numberline {8}General Discussion and Practical Suggestions}{21}}
\@writefile{toc}{\contentsline {section}{\numberline {9}Future Work}{21}}
\@writefile{toc}{\contentsline {subsection}{\numberline {9.1}Insurer \(\mathcal  {I}\)'s turn (as the first-move leader)}{21}}
\@writefile{toc}{\contentsline {subsection}{\numberline {9.2}Discrimination in adversarial behaviour}{22}}
\@writefile{toc}{\contentsline {subsection}{\numberline {9.3}Other potential directions}{22}}
\@writefile{toc}{\contentsline {section}{\numberline {10}Conclusion}{22}}
\@writefile{toc}{\contentsline {section}{Appendices}{22}}
\@writefile{toc}{\contentsline {section}{\numberline {A}Remarks on the challenges of modelling \(\mathcal  {I}\) as a rational agent}{22}}
